emp_name,emp_code,emp_status,role,gender,dob,doj,mob_number,qualification,emer_number,income_tax,father_name,address,permanent_address,formalities,offer_acceptance,prob_period,doc,department,salary,account_number,bank_name,ifsc_code,pf_account_number,pf_status,dor,notice_period,last_working_day,full_final
BHARAT KAPOOR,DIPI0001,Present,Director,male,,2014-01-01,,,,,,,,,,0 days,2014-01-01,,,,,,,,,,,no
NIKHIL GROVER,DIPI0002,Present,Director,male,,2014-01-18,,,,,,,,,,0 days,2014-01-18,,,,,,,,,,,no
AFROZ KHAN,DIPI0003,Present,Research Analyst,male,1988-12-03,2015-07-27,,,,,MUNNE KHAN,,,,completed,0 days,2015-07-27,,,4411654692,Kotak Mahindra,,MR/NOI/1401818/000/0000001,active,,,,no
ABHISHEK MISHRA,DIPI0004,Present,Research Analyst,male,1993-05-07,2015-08-01,,,,BMKPM6570N,Veer Abhimanyu Mishra,,,completed,completed,0 days,2015-08-01,,,7311626653,Kotak Mahindra,,MR/NOI/1401818/000/0000002,active,,,,no
SIDDHARTH SHARMA,DIPI0005,Present,Research Analyst,male,1991-02-01,2015-08-01,,,,DFMPS9918K,Santosh Sharma,,,,completed,0 days,2015-08-01,,,7811617281,Kotak Mahindra,,MR/NOI/1401818/000/0000003,active,,,,no
SUKANYA SARKAR,DIPI0006,Ex,Research Analyst,female,1991-03-24,2015-08-01,,,,ELHPS7810E,Prabir Kumar Sarkar,,,,completed,0 days,2015-08-01,,,7811617267,Kotak Mahindra,,MR/NOI/1401818/000/0000004,active,,,,yes
ASHISH PANT,DIPI0007,Present,Research Analyst,male,1988-04-05,2015-08-01,,,,CMZPP4744H,Keshwanand Pant,,,,completed,0 days,2015-08-01,,,7611634198,Kotak Mahindra,,MR/NOI/1401818/000/0000005,active,,,,no
MAYANK SHARMA,DIPI0008,Present,Research Analyst,male,1987-09-16,2015-08-01,,,,,Dinesh Chand Sharma,,,,completed,0 days,2015-08-01,,,7511638531,Kotak Mahindra,,MR/NOI/1401818/000/0000006,active,,,,no
ROHIT GUPTA,DIPI0009,Present,Research Analyst,male,1989-01-16,2015-08-01,,,,BRIEG9491F,Satish Kumar Gupta,,,,completed,0 days,2015-08-01,,,7611634211,Kotak Mahindra,,MR/NOI/1401818/000/0000007,active,,,,no
ANANT SHUKLA,DIPI0010,Present,Research Analyst,male,14-05-1993,2015-08-01,,,,,Om Prakash Shukla,,,,completed,0 days,2015-08-01,,,1511643595,Kotak Mahindra,,MR/NOI/1401818/000/0000008,active,,,,no
HIMANI SHARMA,DIPI0011,Ex,Research Analyst,female,1991-09-05,2015-08-01,,,,,Bhagwat Prasad Sharma,,,completed,completed,0 days,2015-08-01,,,7511638524,Kotak Mahindra,,MR/NOI/1401818/000/0000009,active,,,,yes
TARINI SINGH,DIPI0012,Present,Team Lead,female,,2015-08-04,,,,,,,,,completed,0 days,2015-08-04,,,,,,,active,,,,no
PIYUSH SHARMA,DIPI0013,Ex,Team Lead,male,1988-09-11,2015-08-24,,,,,K.K Sharma,,,completed,,180 days,2016-02-20,,,7511638548,Kotak Mahindra,,MR/NOI/1401818/000/0000010,active,,,,no
ANUJ TIWARI,DIPI0014,Present,Research Analyst,male,1991-07-30,2015-09-01,,,,AOQPT8260H,RAMAKANT TIWARI,,,completed,completed,0 days,2015-09-01,,,7311626639,Kotak Mahindra,,MR/NOI/1401818/000/0000019,active,,,,no
JEETENDRA PANDEY,DIPI0015,Present,Research Analyst,male,1988-04-03,2015-09-01,,,,AVYPP0717G,JAGDISH PANDEY,,,,completed,0 days,2015-09-01,,,7811617298,Kotak Mahindra,,MR/NOI/1401818/000/0000020,active,,,,no
PANKAJ  DIXIT,DIPI0016,Present,Research Analyst,male,1989-06-04,2015-09-01,,,,BMTPD4935P,SURESH CHANDRA DIXIT,,,,completed,0 days,2015-09-01,,,7511638555,Kotak Mahindra,,MR/NOI/1401818/000/0000021,active,,,,no
JITENDRA  KUMAR,DIPI0017,Present,Research Analyst,male,1990-12-25,2015-09-01,,,,BGPPK3794K,VIJAY SINGH,,,completed,,0 days,2015-09-01,,,7911645269,Kotak Mahindra,,MR/NOI/1401818/000/0000022,active,,,,no
MANOJ  TIVARI,DIPI0018,Present,Research Analyst,male,1991-05-25,2015-09-01,,,,ASBPT9201H,RAMAKANT TIWARI,,,completed,completed,0 days,2015-09-01,,,7511638517,Kotak Mahindra,,MR/NOI/1401818/000/0000023,active,,,,no
BRAJ BHUSHAN,DIPI0019,Present,Research Analyst,male,1989-10-17,2015-09-01,,,,CIVPK2309B,LATE. KASHI NATH MISHRA,,,completed,completed,0 days,2015-09-01,,,7411620490,Kotak Mahindra,,MR/NOI/1401818/000/0000025,active,,,,no
VISHAL  KUMAR,DIPI0020,Ex,Research Analyst,male,1989-11-03,2015-09-01,,,,,SURENDRA KUMAR,,,,completed,0 days,2015-09-01,,,7611634204,Kotak Mahindra,,MR/NOI/1401818/000/0000026,active,,,,yes
ROHIT  SHARMA,DIPI0021,Ex,Research Analyst,male,1992-02-05,2015-09-01,,,,CJPPS2681M,KRISHAN PAL SHARMA,,,,completed,0 days,2015-09-01,,,7811617304,Kotak Mahindra,,MR/NOI/1401818/000/0000027,active,,,,yes
NEHA KUMARI,DIPI0022,Ex,Research Analyst,female,1990-11-19,2015-09-01,,,,DHSPK0308H,Dilip Kumar Singh,,,,completed,0 days,2015-09-01,,,3311615819,Kotak Mahindra,,MR/NOI/1401818/000/0000028,active,,,,yes
NARAIN  SINGH,DIPI0023,Present,Research Analyst,male,1992-07-15,2015-09-01,,,,FOZPS1282A,Brij Lal,,,,completed,0 days,2015-09-01,,,7911645276,Kotak Mahindra,,MR/NOI/1401818/000/0000029,active,,,,no
SAKSHI ,DIPI0024,Present,Research Analyst,female,1992-08-12,2015-09-01,,,,FLBPS5383B,Sushil Kumar Rana,,,completed,completed,0 days,2015-09-01,,,7911645290,Kotak Mahindra,,MR/NOI/1401818/000/0000030,active,,,,no
HIMANSHU  SINGH,DIPI0025,Ex,Research Analyst,male,,2015-09-01,,,,,,,,,,0 days,2015-09-01,,,,,,,active,,,,yes
RAJ  MANARAL,DIPI0026,Present,Manager,male,1981-07-03,2015-09-01,,,,BPTPM5277C,K.S.MISHRA,,,,,0 days,2015-09-01,,,8411611129,Kotak Mahindra,,MR/NOI/1401818/000/0000011,active,,,,no
POOJA  THAKUR,DIPI0027,Present,Team Lead,female,1989-10-15,2015-09-01,,,,AQPPT9868A,CHANDRA THAKUR,,,completed,completed,0 days,2015-09-01,,,7811617274,Kotak Mahindra,,MR/NOI/1401818/000/0000012,active,,,,no
PRIYA  ARORA,DIPI0028,Present,Team Lead,female,1986-05-13,2015-09-01,,,,AQIPA7356H,D.K.ARORA,,,completed,completed,0 days,2015-09-01,,,7911645283,Kotak Mahindra,,MR/NOI/1401818/000/0000013,active,,,,no
HINA  SAXENA,DIPI0029,Present,Team Lead,female,1988-04-13,2015-09-01,,,,CRCPS7202R,ANIL SAXENA,,,completed,completed,0 days,2015-09-01,,,8611643081,Kotak Mahindra,,MR/NOI/1401818/000/0000014,active,,,,no
ADITYA NARAYAN SINGH GAUTAM,DIPI0030,Present,Research Analyst,male,1985-07-21,2015-09-01,,,,AYWPG1504F,RAJENDRA SINGH,,,completed,completed,0 days,2015-09-01,,,3311615840,Kotak Mahindra,,MR/NOI/1401818/000/0000015,active,,,,no
LALIT  KUMAR,DIPI0031,Present,IT Executive,male,1988-03-09,2015-09-01,,,,CDHPK4340R,SHIV SINGH,,,completed,,0 days,2015-09-01,,,7311626677,Kotak Mahindra,,MR/NOI/1401818/000/0000016,active,,,,no
PRABHA JAISWAL,DIPI0032,Present,HR Manager,female,1989-07-08,2015-09-01,,,,ALRPJ2239E,Prabodh Kumar,,,completed,,0 days,2015-09-01,,,0911625590,Kotak Mahindra,,MR/NOI/1401818/000/0000017,active,,,,no
SUMIT  SRIVASTAVA,DIPI0033,Present,Team Lead,male,1984-09-03,2015-09-01,,,,CJPPS9196H,Om Prakash Srivastava,,,,completed,0 days,2015-09-01,,,3311615857,Kotak Mahindra,,MR/NOI/1401818/000/0000018,active,,,,no
GYANENDRA SINGH,DIPI0034,Present,Team Lead,male,1991-07-01,2015-09-01,,,,EIUPS4429H,KISHAN PAL SINGH,,,,completed,0 days,2015-09-01,,,6611636164,Kotak Mahindra,,MR/NOI/1401818/000/0000024,active,,,,no
VINIT RANJAN,DIPI0035,Present,Research Analyst,male,1989-09-19,2015-09-04,,,,BFFPR7175N,DINESH KUMAR SINHA,,,,,0 days,2015-09-04,,,3311615802,Kotak Mahindra,,MR/NOI/1401818/000/0000031,active,,,,no
URVASHI SINGH,DIPI0036,Ex,Associate-Enforcement,female,1983-10-29,2015-09-01,,,,,M. B SINGH,,,,,0 days,2015-09-01,,,,Kotak Mahindra,,,active,,,,yes
ZAHRA VANA,Consultant-1,Present,Enforcement Head,female,,2015-09-01,,,,,,,,completed,,0 days,2015-09-01,,,,Kotak Mahindra,,,active,,,,no
ASHISH KUMAR,DIPI0037,Present,Finance Controller,male,1984-07-03,2015-09-07,,,,APRPK582Q,GULAB CHAND,,,completed,completed,0 days,2015-09-07,,,5211639025,Kotak Mahindra,,MR/NOI/1401818/000/0000032,active,,,,no
SOURABH GANDHI,Consultant-2,Ex,Consultant,male,,2015-09-14,,,,,,,,completed,,0 days,2015-09-14,,,,,,,active,,,,yes
SATENDRA SINGH,DIPI0038,Present,Front desk Executive,male,1973-08-15,2015-10-01,,,,,PARSHURAM SINGH,,,completed,completed,0 days,2015-10-01,,,6611652805,Kotak Mahindra,,MR/NOI/1401818/000/0000034,active,,,,no
KANAK MANJARI,DIPI0039,Present,Software Developer,female,1991-01-21,2015-10-01,,,,,K. N Jha,,,completed,completed,0 days,2015-10-01,,,0211642341,Kotak Mahindra,,MR/NOI/1401818/000/0000033,active,,,,no
GAURAV RANA,DIPI0040,Present,Research Analyst,male,20-01-1996,2015-11-01,,,,,Ranjeet Singh Rana,,,completed,completed,0 days,2015-11-01,,,7311626646,Kotak Mahindra,,MR/NOI/1401818/000/0000035,active,,,,no
VAISHALI,DIPI0041,Present,Research Analyst,female,1992-01-10,2015-11-01,8010274551,,,,Shyam Sunder,,,completed,completed,0 days,2015-11-01,,,0111627103,Kotak Mahindra,,MR/NOI/1401818/000/0000037,active,,,,no
AKANKSHA,DIPI0042,Present,Research Analyst,female,1991-09-04,2015-11-01,,,,BFKPA6335L,Ajendra Rawat,,,completed,completed,0 days,2015-11-01,,,0111627110,Kotak Mahindra,,MR/NOI/1401818/000/0000039,active,,,,no
NEHA SIROHI,DIPI0043,Present,Research Analyst,female,16-05-1985,2015-11-01,,,,DMNPS0786R,Tejvir Singh Sirohi,,,completed,completed,0 days,2015-11-01,,,8511667668,Kotak Mahindra,,MR/NOI/1401818/000/0000038,active,,,,no
VINEET SHAH,DIPI0044,Present,Research Analyst,male,1989-09-02,2015-11-01,9466692470,,,CCDPS1799B,Mr. Ramesh Kumar Shah,,,,,0 days,2015-11-01,,,7911686118,Kotak Mahindra,,MR/NOI/1401818/000/0000033,active,,,,no
SILKY GANDHI,DIPI0045,Present,Team Lead,female,1989-01-04,2015-11-01,9818775364,,,ATVPG1558K,Mr. Ashok Kumar Gandhi,,,,,0 days,2015-11-01,,,,Kotak Mahindra,,MR/NOI/1401818/000/0000044,active,,,,no
MOHIT SHARMA,DIPI0046,Ex,Research Analyst,male,1993-12-23,2015-11-02,,,,ASOPV7440F,YOGENDER KUMAR VERMA,,,completed,completed,0 days,2015-11-02,,,8311661965,Kotak Mahindra,,MR/NOI/1401818/000/0000036,active,,,,yes
GAURAV SUMAN,DIPI0047,Ex,Research Analyst,male,,2015-11-02,,,,,,,,,completed,0 days,2015-11-02,,,,,,,,,,,yes
ANUP KUMAR MISHRA,DIPI0048,Ex,Research Analyst,male,1991-04-04,2015-11-16,,,,,G.S MISHRA,,,,completed,0 days,2015-11-16,,,,Kotak Mahindra,,MR/NOI/1401818/000/0000040,active,,,,yes
UMAR GULZAR,DIPI0050,Ex,Research Analyst,male,1991-03-18,2015-11-26,,,,,Gulzar Ahmad,,,completed,completed,90 days,2016-02-24,,,9111672472,Kotak Mahindra,,MR/NOI/1401818/000/0000042,active,,,,yes
BABAR YUSUF WANI,DIPI0051,Present,Research Analyst,male,1991-10-02,2015-12-01,,,,ABNPW9077F,Mod. Yousuf,,,completed,completed,90 days,2016-02-29,,,9111672465,Kotak Mahindra,,MR/NOI/1401818/000/0000045,active,,,,no
MAYANK DEEP,DIPI0052,Present,Research Analyst,male,1992-01-27,2015-12-01,,,,AXWPD7617F,Sanjeev Kumar Jha,,,completed,completed,90 days,2016-02-29,,,8511667743,Kotak Mahindra,,MR/NOI/1401818/000/0000046,active,,,,no
MANISHA KASHYAP,DIPI0053,Present,Research Analyst,female,1992-10-23,2015-12-01,,,,CYLPK7724A,Mr. Anil Kumar Singh,,,,,90 days,2016-02-29,,,9111672397,Kotak Mahindra,,MR/NOI/1401818/000/0000047,active,,,,no
Ankur Gupta,DIPI0054,Present,Team Lead,male,1986-01-04,2015-12-01,8585979196,,9555058458,ASFPG5487Q,Mr. Arun Kumar Gupta,,,completed,completed,0 days,2015-12-01,,,8711676736,Kotak Mahindra,,MR/NOI/1401818/000/0000048,active,,,,no
Apsha Gupta,DIPI0055,Present,Team Lead,female,1988-04-21,2015-12-01,9873948867,,,ANLPG1109L,Mr. Sanjay Gupta,,,completed,completed,0 days,2015-12-01,,,,Kotak Mahindra,,MR/NOI/1401818/000/0000049,active,,,,no
Karishma Farhat,DIPI0056,Present,Research Analyst,female,1990-06-14,2015-12-01,9958675307,,,ABJPF4165D,--,,,,,0 days,2015-12-01,,,9111672380,Kotak Mahindra,,MR/NOI/1401818/000/0000050,active,,,,no
Komal Khurana,DIPI0057,Present,Research Analyst,female,1990-08-07,2015-12-01,9716694017,,,DDGPK4524M,Mr. Ashok Kumar Khurana,,,completed,completed,0 days,2015-12-01,,,9111672427,Kotak Mahindra,,MR/NOI/1401818/000/0000051,active,,,,no
Parvesh Sharma,DIPI0058,Present,Research Analyst,male,1990-02-19,2015-12-01,8447741667,,,FHYPS6535Q,Mr. Babu Ram,,,,,0 days,2015-12-01,,,9111672441,Kotak Mahindra,,MR/NOI/1401818/000/0000052,active,,,,no
Vandana Jain,DIPI0059,Present,Research Analyst,female,1989-01-05,2015-12-01,8882181841,,,AKCPJ5654P,Mr. Vidya Sagar Jain,,,completed,completed,0 days,2015-12-01,,,7911686101,Kotak Mahindra,,MR/NOI/1401818/000/0000053,active,,,,no
Harshit Sarwate,DIPI0060,Ex,Research Analyst,male,1993-01-09,2015-12-01,9560343173,,,FMIPS5626B,Mr. D. R. Sarwate,,,,,0 days,2015-12-01,,,7911686057,Kotak Mahindra,,MR/NOI/1401818/000/0000054,active,,,,yes
Rashmi,DIPI0061,Present,Research Analyst,female,1988-06-24,2015-12-01,,,,AYGPR1896P,Mr. Bishnu Baitha,,,,,0 days,2015-12-01,,,,Kotak Mahindra,,MR/NOI/1401818/000/0000055,active,,,,no
Ashish Bhalla,DIPI0062,Ex,Research Analyst,male,1992-01-04,2015-12-01,8447227679,,,AXWPB2480L,Mr. Arun Kumar Bhalla,,,,,0 days,2015-12-01,,,7911686064,Kotak Mahindra,,MR/NOI/1401818/000/0000056,active,,,,yes
Aman Beniwal,DIPI0063,Present,Research Analyst,male,1992-08-27,2015-12-01,9971928818,,,CDDPB7425G,Mr. Suresh Beniwal,,,,,0 days,2015-12-01,,,9111672434,Kotak Mahindra,,MR/NOI/1401818/000/0000057,active,,,,no
Bipin Srivastava,DIPI0064,Present,Research Analyst,male,1995-02-25,2015-12-01,8826019567,,,FFPPS7868M,Mr. H. S. Srivastava,,,,,0 days,2015-12-01,,,7911686286,Kotak Mahindra,,MR/NOI/1401818/000/0000058,active,,,,no
Namit Thakkar,DIPI0065,Present,Research Analyst,male,1993-03-04,2015-12-01,9958769204,,,AMXPT6059P,Mr. Ajay Thakkar,,,,,0 days,2015-12-01,,,7911686040,Kotak Mahindra,,MR/NOI/1401818/000/0000059,active,,,,no
Parmeet Singh,DIPI0066,Present,Research Analyst,male,1992-11-29,2015-12-01,,,,FYUPS3580N,Mr. Ranbir Singh,,,,,0 days,2015-12-01,,,8511668191,Kotak Mahindra,,MR/NOI/1401818/000/0000060,active,,,,no
Prabhat Kumar Arya,DIPI0067,Present,Research Analyst,male,1992-01-10,2015-12-01,9711924914,,,ATEPA1468K,Mr. Anand Ram,,,,,0 days,2015-12-01,,,7911686026,Kotak Mahindra,,MR/NOI/1401818/000/0000061,active,,,,no
Sampda,DIPI0068,Ex,Research Analyst,female,1992-06-15,2015-12-01,7042519360,,,BXMPS1066C,Mr. S. K. Sharma,,,,,0 days,2015-12-01,,,9111672410,Kotak Mahindra,,MR/NOI/1401818/000/0000062,active,,,,yes
Sushobhan Shekhar Dutta,DIPI0069,Present,Research Analyst,male,1993-11-17,2015-12-01,8437195388,,,BICPD9491B,Mr. Sudarshan Shekhar Dutta,,,,,0 days,2015-12-01,,,7911686019,Kotak Mahindra,,MR/NOI/1401818/000/0000063,active,,,,no
Tanvi Khurana,DIPI0070,Present,Research Analyst,female,1991-03-10,2015-12-01,9871101074,,,DALPK3991L,Mr. Prem Khurana,,,completed,completed,0 days,2015-12-01,,,8511668207,Kotak Mahindra,,MR/NOI/1401818/000/0000064,active,,,,no
Vivek Mishra,DIPI0071,Present,Research Analyst,male,1991-09-24,2015-12-01,9456959067,,7827377090,CSJPM9819E,Mr. Ghanshyam Mishra,,,,,0 days,2015-12-01,,,9111672458,Kotak Mahindra,,MR/NOI/1401818/000/0000065,active,,,,no
Akansha Dixit,DIPI0072,Ex,Research Analyst,female,1992-03-10,2015-12-01,7042335487,,,BNJPD6495F,Anil K Dixit,,,,,0 days,2015-12-01,,,7911686095,Kotak Mahindra,,MR/NOI/1401818/000/0000066,active,,,,yes
Geetika Chawla,DIPI0073,Present,Research Analyst,female,1992-12-22,2015-12-01,9717331671,,,BDQPC7162K,Mr. Harbans Lal Chawla,,,,,0 days,2015-12-01,,,7911686033,Kotak Mahindra,,MR/NOI/1401818/000/0000067,active,,,,no
Rahul Kakkar,DIPI0074,Present,Research Analyst,male,1993-06-16,2015-12-01,9478968788,,,DBQPK9528F,Mr. Ravikant Kakkar,,,completed,completed,0 days,2015-12-01,,,7711672076,Kotak Mahindra,,MR/NOI/1401818/000/0000068,active,,,,no
Rakesh Kumar Singh,DIPI0075,Present,Research Analyst,male,1992-05-16,2015-12-01,8506074758,,,DWTPS5856J,Mr. Uma Shankar Singh,,,completed,completed,0 days,2015-12-01,,,8811662165,Kotak Mahindra,,MR/NOI/1401818/000/0000069,active,,,,no
Swati Kalia,DIPI0076,Present,Research Analyst,female,1992-05-03,2015-12-01,7042254334,,,DUXPK0437H,Mr. Satish Kalia,,,completed,completed,0 days,2015-12-01,,,7911686071,Kotak Mahindra,,MR/NOI/1401818/000/0000070,active,,,,no
Swati Garg,DIPI0077,Ex,Research Analyst,female,1988-08-30,2015-12-01,9717331671,,,AXPPG7298A,Mr. S. P. Garg,,,pending,,0 days,2015-12-01,,,8511667767,Kotak Mahindra,,MR/NOI/1401818/000/0000071,active,,,,yes
Shivangi Saxena,DIPI0078,Ex,Research Analyst,female,1992-06-26,2015-12-01,8447270875,,,FDRPS9145D,Mr. Subodh Kumar Saxena,,,pending,,0 days,2015-12-01,,,3611686878,Kotak Mahindra,,MR/NOI/1401818/000/0000072,active,,,,yes
Amit Kumar,DIPI0079,Present,Research Analyst,male,1989-06-14,2015-12-01,,,,DEAPK1960N,Mr. Dilip Kumar Singh,,,completed,completed,0 days,2015-12-01,,,7911686088,Kotak Mahindra,,MR/NOI/1401818/000/0000073,active,,,,no
Chhaya Sharma,DIPI0080,Present,Research Analyst,female,1989-10-21,2015-12-01,9654874948,,,,K. K Sharma,,,,,0 days,2015-12-01,,,8511667675,Kotak Mahindra,,MR/NOI/1401818/000/0000074,active,,,,no
GEETANJALI,DIPI0081,Present,Research Analyst,female,1992-05-07,2015-12-07,,,,,Dr. Sheelkant,,,,completed,90 days,2016-03-06,,,8811662127,Kotak Mahindra,,MR/NOI/1401818/000/0000075,active,,,,no
MAYANK SRIVASTAVA,DIPI0082,Present,Research Analyst,male,1992-05-20,2015-12-07,,,,,P. K Srivastava,,,completed,completed,90 days,2016-03-06,,,8811662097,Kotak Mahindra,,MR/NOI/1401818/000/0000076,active,,,,no
PRERNA,DIPI0083,Present,Research Analyst,female,1991-03-08,2015-12-15,8800410910,,,,G.K Gupta,,,,,90 days,2016-03-14,,,,Kotak Mahindra,,MR/NOI/1401818/000/0000077,active,,,,no
ROHIT MUDGAL,DIPI0084,Present,Research Analyst,male,1989-10-30,2015-12-15,,,,,Kailash Mudgal,,,,,90 days,2016-03-14,,,,Kotak Mahindra,,MR/NOI/1401818/000/0000078,active,,,,no
ABHISHEK GOSAIN,DIPI0085,Present,Research Analyst,male,1994-08-20,2015-12-17,,,,,Sandeep Gosain,,,completed,completed,90 days,2016-03-16,,,,Kotak Mahindra,,MR/NOI/1401818/000/0000079,active,,,,no
NEERAJ NAMDEV,DIPI0086,Present,Research Analyst,male,1990-09-07,2015-12-18,,,,,Brajesh Kumar Namdev,,,completed,completed,90 days,2016-03-17,,,,Kotak Mahindra,,MR/NOI/1401818/000/0000080,active,,,,no
ATUL KUMAR SINGH,DIPI0087,Ex,Research Analyst,male,1988-10-19,2015-12-21,,,,,Ram Naresh,,,,,90 days,2016-03-20,,,,Kotak Mahindra,,MR/NOI/1401818/000/0000081,active,,,,yes
RAHUL GOEL,DIPI0088,Present,Research Analyst,male,1991-07-15,2015-12-21,,,,,Pradeep Kumar Goel,,,completed,completed,90 days,2016-03-20,,,,Kotak Mahindra,,MR/NOI/1401818/000/0000082,active,,,,no
NIDHI VISHWAKARMA,DIPI0089,Present,Research Analyst,female,1988-11-06,2015-12-24,8826583922,,,,R.P Vishwakarma,,,completed,completed,90 days,2016-03-23,,,,Kotak Mahindra,,MR/NOI/1401818/000/0000083,active,,,,no
ANKUSH VARMA,DIPI0090,Present,Research Analyst,male,1992-10-12,2015-12-24,9899660185,,,,K.P Varma,,,,,90 days,2016-03-23,,,,Kotak Mahindra,,MR/NOI/1401818/000/0000084,active,,,,no
BRIJENDRA SINGH RATHORE,DIPI0091,Ex,Research Analyst,male,1988-03-22,2015-12-24,8527211464,,,,B.S Rathore,,,,completed,90 days,2016-03-23,,,,Kotak Mahindra,,MR/NOI/1401818/000/0000085,active,,,,yes
MAYANK AGARWAL,DIPI0092,Present,Research Analyst,male,1991-06-07,2015-12-28,9654267560,,,,S.K Agarwal,,,,,90 days,2016-03-27,,,,Kotak Mahindra,,MR/NOI/1401818/000/0000086,active,,,,no
NUTAN SHARMA,DIPI0093,Present,Accounts Executive,female,,2016-01-01,,,,,Subhash Chand Sharma,,,completed,,0 days,2016-01-01,,,7311626660,Kotak Mahindra,,MR/NOI/1401818/000/0000087,active,,,,no
GOUTAM KUMAR,DIPI0094,Present,Research Analyst,male,,2016-01-01,,,,,Shyam Sunder Singh,,,completed,completed,0 days,2016-01-01,,,3611686854,Kotak Mahindra,,MR/NOI/1401818/000/0000088,active,,,,no
AMARENDRA,DIPI0095,Present,Research Analyst,male,,2016-01-01,,,,,Vijay Pal Singh,,,,,0 days,2016-01-01,,,0811680460,Kotak Mahindra,,MR/NOI/1401818/000/0000089,active,,,,no
SHUBHAM AGARWAL,DIPI0096,Present,Research Analyst,male,,2016-01-11,,,,,S.K Gupta,,,,completed,90 days,2016-04-10,,,,Kotak Mahindra,,MR/NOI/1401818/000/0000090,active,,,,no
KATYANI NARGOTRA,DIPI0097,Ex,Research Analyst,female,,2016-01-19,,,,,Raman Nargotra,,,,,90 days,2016-04-18,,,,Kotak Mahindra,,MR/NOI/1401818/000/0000091,active,,,,no
SADAF FATIMA,DIPI0098,Present,Research Analyst,female,,2016-01-22,,,,,Ashiq Hussain Baba,,,,completed,90 days,2016-04-21,,,,Kotak Mahindra,,MR/NOI/1401818/000/0000092,active,,,,no
YASH KAPOOR,DIPI0099,Present,Research Analyst,male,,2016-01-25,,,,,,,,completed,,90 days,2016-04-24,,,,Kotak Mahindra,,,active,,,,no
FAHEEM JAN,DIPI0100,Ex,Research Analyst,male,1990-07-11,2016-02-01,8447084733,,,,Fayaz Ahmad,,,completed,completed,90 days,2016-05-01,,,,Kotak Mahindra,,,active,,,,yes
TULSI SONI,DIPI0101,Present,Research Analyst,male,1996-02-28,2016-02-01,9599313022,,,,Kirori Mal,,,,,90 days,2016-05-01,,,,Kotak Mahindra,,,active,,,,no
AASTHA GOVER,DIPI0102,Ex,Research Analyst,female,1992-03-01,2016-02-01,9953269388,,,,D. K Grover,,,,,90 days,2016-05-01,,,,Kotak Mahindra,,,active,,,,yes
DEEPAK CHAWLA,DIPI0103,Present,Research Analyst,male,1992-10-11,2016-02-01,9278042212,,,,Lt. Bharat Bhushan Chawla,,,,,90 days,2016-05-01,,,,Kotak Mahindra,,,active,,,,no
LOKESH KUMAR SHARMA,DIPI0104,Present,Research Analyst,male,1991-12-27,2016-02-01,9990390868,,,,Mr. B. P Sharma,,,,,90 days,2016-05-01,,,,Kotak Mahindra,,,active,,,,no
ABHISHEK PATNAIK,DIPI0105,Present,Research Analyst,male,1991-04-16,2016-02-03,9999856790,,,,Dr. Asit Kumar Patnaik,,,,,90 days,2016-05-03,,,,Kotak Mahindra,,,active,,,,no
RAVISHANKAR,DIPI0106,Present,Research Analyst,male,,2016-02-22,,,,,,,,completed,completed,180 days,2016-08-20,,,,Kotak Mahindra,,,,,,,no
ANOOP SAURABH,DIPI0107,Present,Research Analyst,male,,2016-02-22,,,,,,,,,,180 days,2016-08-20,,,,Kotak Mahindra,,,,,,,no
Himanshu Gnguly,DIPI0108,Present,Research Analyst,male,,2016-03-07,,,,,,,,,completed,180 days,2016-09-03,,,,Kotak Mahindra,,,,,,,no
Ayushi Chaudhary,DIPI0109,Present,Research Analyst,female,,2016-03-14,,,,,,,,completed,completed,180 days,2016-09-10,,,,Kotak Mahindra,,,,,,,no
Vivek Mamgain,DIPI0110,Present,Research Analyst,male,,2016-03-14,,,,,,,,completed,completed,180 days,2016-09-10,,,,Kotak Mahindra,,,,,,,no
Anjali,DIPI0111,Present,Research Analyst,male,,2016-03-16,,,,,,,,completed,completed,180 days,2016-09-12,,,,Kotak Mahindra,,,,,,,no
Akanksha Raj,DIPI0112,Ex,Research Analyst,female,,,,,,,,,,,,180 days,2016-09-17,,,,Kotak Mahindra,,,,,,,yes
ARIF SIDDIQUE,DIPI0113,Present,Research Analyst,male,,2016-03-31,,,,,,,,completed,,180 days,2016-09-27,,,,Kotak Mahindra,,,,,,,no
SUSHANT PAL,DIPI0114,Present,Research Analyst,male,,2016-04-18,,,,,,,,,,180 days,2016-10-15,,,,Kotak Mahindra,,,,,,,no
MANNU SINGHAL,DIPI0115,Present,Research Analyst,,,2016-04-19,,,,,,,,,,180 days,2016-10-16,,,,Kotak Mahindra,,,,,,,no
PRIYA PRIYADARSHINI,DIPI0116,Present,Research Analyst,female,,2016-04-21,,,,,,,,completed,completed,180 days,2016-10-18,,,,Kotak Mahindra,,,,,,,no
AYUSHI TIWARI,DIPI0117,Present,Research Analyst,female,,2016-04-21,,,,,,,,completed,completed,180 days,2016-10-18,,,,Kotak Mahindra,,,,,,,no
ABHISHEK SRIVASTAVA,DIPI0118,Present,Research Analyst,male,,2016-04-25,,,,,,,,completed,,180 days,2016-10-22,,,,Kotak Mahindra,,,,,,,no
MANISH DUBEY,DIPI0119,Present,Research Analyst,male,,2016-04-25,,,,,,,,completed,,180 days,2016-10-22,,,,Kotak Mahindra,,,,,,,no
HIMANI ARORA,DIPI0120,Present,Research Analyst,female,,2016-04-26,,,,,,,,completed,,180 days,2016-10-23,,,,Kotak Mahindra,,,,,,,no
RAVINA TITORIA,DIPI0121,Present,Research Analyst,female,,2016-05-02,,,,,,,,,,180 days,2016-10-29,,,,Kotak Mahindra,,,,,,,no
